…
    ## 
    ## -- Column specification --------------------------------------------------------
    ## cols(
    ##   plot = col_double(),
    ##   tree = col_double(),
    ##   species = col_character(),
    ##   dbh.cm = col_double(),
    ##   height.m = col_double()
    ## )

``` r
ufc_tibble
```

    ## # A tibble: 336 x 5
    ##     plot  tree species dbh.cm height.m
    ##    <dbl> <dbl> <chr>    <dbl>    <dbl>
    ##  1     2     1 DF        39       20.5
    ##  2     2     2 WL        48       33  
    ##  3     3     2 GF        52       30  
    ##  4     3     5 WC        36       20.7
    ##  5     3     8 WC        38       22.5
    ##  6     4     1 WC        46       18  
    ##  7     4     2 DF        25       17  
    ##  8     5     2 DF        54.9     29.3
    ##  9     5     4 GF        51.8     29  
    ## 10     6     1 DF        40.9     26  
    ## # ... with 326 more rows
…
